﻿{
  "$schema": "http://json.schemastore.org/launchsettings.json",

    "profiles": {
        "Development": {
            "commandName": "Project",
            "launchBrowser": false,
            "launchUrl": "",
            "applicationUrl": "http://localhost:5001",
            "environmentVariables": {
                "ASPNETCORE_ENVIRONMENT": "Development"
            }
        },
        "QA": {
            "commandName": "Project",
            "launchBrowser": false,
            "launchUrl": "",
            "applicationUrl": "http://localhost:5001",
            "environmentVariables": {
                "ASPNETCORE_ENVIRONMENT": "QA"
            }
        },
        "Production": {
            "commandName": "Project",
            "launchBrowser": false,
            "launchUrl": "",
            "applicationUrl": "http://localhost:5001",
            "environmentVariables": {
                "ASPNETCORE_ENVIRONMENT": "Production"
            }
        }
    }
}
